{
    "name": "test-network-org1",
    "version": "1.0.0",
    "client": {
        "organization": "Org1",
        "connection": {
            "timeout": {
                "peer": {
                    "endorser": "300"
                }
            }
        }
    },
    "organizations": {
        "Org1": {
            "mspid": "Org1MSP",
            "peers": [
                "peer0.org1.example.com"
            ],
            "certificateAuthorities": [
                "ca.org1.example.com"
            ]
        }
    },
    "peers": {
        "peer0.org1.example.com": {
            "url": "grpcs://localhost:7051",
            "tlsCACerts": {
                "pem": "-----BEGIN CERTIFICATE-----\nMIICWDCCAf2gAwIBAgIQCxxSEffm5+w7EeLE8OqpWzAKBggqhkjOPQQDAjB2MQsw\nCQYDVQQGEwJVUzETMBEGA1UECBMKQ2FsaWZvcm5pYTEWMBQGA1UEBxMNU2FuIEZy\nYW5jaXNjbzEZMBcGA1UEChMQb3JnMS5leGFtcGxlLmNvbTEfMB0GA1UEAxMWdGxz\nY2Eub3JnMS5leGFtcGxlLmNvbTAeFw0yMTEyMDMwMjE2MDBaFw0zMTEyMDEwMjE2\nMDBaMHYxCzAJBgNVBAYTAlVTMRMwEQYDVQQIEwpDYWxpZm9ybmlhMRYwFAYDVQQH\nEw1TYW4gRnJhbmNpc2NvMRkwFwYDVQQKExBvcmcxLmV4YW1wbGUuY29tMR8wHQYD\nVQQDExZ0bHNjYS5vcmcxLmV4YW1wbGUuY29tMFkwEwYHKoZIzj0CAQYIKoZIzj0D\nAQcDQgAE7d1eg4sOi9jgvupvTLlLlUhceUEhDhFVFp2XYcetgQVV0/YuLYORPscN\nQ4ZGv1+uHTc/GOm1hqlNY798xlySL6NtMGswDgYDVR0PAQH/BAQDAgGmMB0GA1Ud\nJQQWMBQGCCsGAQUFBwMCBggrBgEFBQcDATAPBgNVHRMBAf8EBTADAQH/MCkGA1Ud\nDgQiBCDS30PEHlso4xH8iict37QNdHuSoSnHDqIAICfe6eqZIzAKBggqhkjOPQQD\nAgNJADBGAiEAgMgQgy48LZhVvZFlatGt0iP0IA4bKeSMUqKICq9QTcECIQDzvHr1\nOi9e7wQomrlLP35+E/M7xqF2Jtgd6n9CVsLmSQ==\n-----END CERTIFICATE-----\n"
            },
            "grpcOptions": {
                "ssl-target-name-override": "peer0.org1.example.com",
                "hostnameOverride": "peer0.org1.example.com"
            }
        }
    },
    "certificateAuthorities": {
        "ca.org1.example.com": {
            "url": "https://localhost:7054",
            "caName": "ca-org1",
            "tlsCACerts": {
                "pem": ["-----BEGIN CERTIFICATE-----\nMIICUTCCAfegAwIBAgIQQThQcMMvgBE1iNV3kKwrsTAKBggqhkjOPQQDAjBzMQsw\nCQYDVQQGEwJVUzETMBEGA1UECBMKQ2FsaWZvcm5pYTEWMBQGA1UEBxMNU2FuIEZy\nYW5jaXNjbzEZMBcGA1UEChMQb3JnMS5leGFtcGxlLmNvbTEcMBoGA1UEAxMTY2Eu\nb3JnMS5leGFtcGxlLmNvbTAeFw0yMTEyMDMwMjE2MDBaFw0zMTEyMDEwMjE2MDBa\nMHMxCzAJBgNVBAYTAlVTMRMwEQYDVQQIEwpDYWxpZm9ybmlhMRYwFAYDVQQHEw1T\nYW4gRnJhbmNpc2NvMRkwFwYDVQQKExBvcmcxLmV4YW1wbGUuY29tMRwwGgYDVQQD\nExNjYS5vcmcxLmV4YW1wbGUuY29tMFkwEwYHKoZIzj0CAQYIKoZIzj0DAQcDQgAE\nsbNDIGlcPb+XAnW1HSL9EvmYmyZZXKaT3KfUx2WQi58E/fE2PAasUeFZ8f7AnNFt\neou7JjmpwMHRGyCgxa6yuaNtMGswDgYDVR0PAQH/BAQDAgGmMB0GA1UdJQQWMBQG\nCCsGAQUFBwMCBggrBgEFBQcDATAPBgNVHRMBAf8EBTADAQH/MCkGA1UdDgQiBCD0\nj0jERN9EB24UoHwxRN0LM45mUisEQ/ODTP+v4Jr7vzAKBggqhkjOPQQDAgNIADBF\nAiEAh0GDcII1jkpDUsvO/PODF+kk804Sph52P6n6Yae2EPMCIGfMTkNDGB25AEoJ\nHp+/DYVulY6vGdQl1jRrmS2WJkKB\n-----END CERTIFICATE-----\n"]
            },
            "httpOptions": {
                "verify": false
            }
        }
    }
}
